/home/e20180012117/L3/S5/HAI501I - Atelier de Génie Logiciel/TP4/GestionTER/src/main/java/HAI501I/GestionTER/Groupe.java
/home/e20180012117/L3/S5/HAI501I - Atelier de Génie Logiciel/TP4/GestionTER/src/main/java/HAI501I/GestionTER/GestionTER.java
/home/e20180012117/L3/S5/HAI501I - Atelier de Génie Logiciel/TP4/GestionTER/src/main/java/HAI501I/GestionTER/MatriceAffectation.java
/home/e20180012117/L3/S5/HAI501I - Atelier de Génie Logiciel/TP4/GestionTER/src/main/java/HAI501I/GestionTER/Affectation.java
/home/e20180012117/L3/S5/HAI501I - Atelier de Génie Logiciel/TP4/GestionTER/src/main/java/HAI501I/GestionTER/Sujet.java
/home/e20180012117/L3/S5/HAI501I - Atelier de Génie Logiciel/TP4/GestionTER/src/main/java/HAI501I/GestionTER/Hongrois.java
