/home/e20160002664/L3/aglC/TP1/GestionTER/src/main/java/HAI501I/GestionTER/Affectation.java
/home/e20160002664/L3/aglC/TP1/GestionTER/src/main/java/HAI501I/GestionTER/Groupe.java
/home/e20160002664/L3/aglC/TP1/GestionTER/src/main/java/HAI501I/GestionTER/Hongrois.java
/home/e20160002664/L3/aglC/TP1/GestionTER/src/main/java/HAI501I/GestionTER/GestionTER.java
/home/e20160002664/L3/aglC/TP1/GestionTER/src/main/java/HAI501I/GestionTER/MatriceAffectation.java
/home/e20160002664/L3/aglC/TP1/GestionTER/src/main/java/HAI501I/GestionTER/Sujet.java
