-------------------------------------------------------------------------------
Test set: HAI501I.GestionTER.TestGestionTERGroupe
-------------------------------------------------------------------------------
Tests run: 3, Failures: 0, Errors: 0, Skipped: 0, Time elapsed: 0.691 s - in HAI501I.GestionTER.TestGestionTERGroupe
